{
	"info": {
		"_postman_id": "1458d2c8-936f-4faa-b2b1-ae4cc61dd087",
		"name": "Capstone 2 -Backend",
		"schema": "https://schema.getpostman.com/json/collection/v2.1.0/collection.json",
		"_exporter_id": "13442267"
	},
	"item": [
		{
			"name": "User-Collection",
			"item": [
				{
					"name": "register user",
					"request": {
						"method": "POST",
						"header": [],
						"body": {
							"mode": "raw",
							"raw": "{\r\n    \"email\": \"car.soliman@gmail.com\"\r\n}",
							"options": {
								"raw": {
									"language": "json"
								}
							}
						},
						"url": {
							"raw": "{{url}}/users/register",
							"host": [
								"{{url}}"
							],
							"path": [
								"users",
								"register"
							]
						}
					},
					"response": []
				},
				{
					"name": "login user",
					"request": {
						"method": "POST",
						"header": [],
						"body": {
							"mode": "raw",
							"raw": "{\r\n    \"email\":\"carlene.soliman@gmail.com\",\r\n    \"password\":\"pass1234\"\r\n}",
							"options": {
								"raw": {
									"language": "json"
								}
							}
						},
						"url": {
							"raw": "{{url}}/users/login",
							"host": [
								"{{url}}"
							],
							"path": [
								"users",
								"login"
							]
						}
					},
					"response": []
				},
				{
					"name": "set user access",
					"request": {
						"auth": {
							"type": "bearer",
							"bearer": [
								{
									"key": "token",
									"value": "eyJhbGciOiJIUzI1NiIsInR5cCI6IkpXVCJ9.eyJpZCI6IjYzMjA3Y2FhODM1Yjg2YzJkYWNkZmEzMiIsImVtYWlsIjoiYWRtaW5AZW1haWwuY29tIiwiaXNBZG1pbiI6dHJ1ZSwiaWF0IjoxNjYzMTU4NDM0fQ.GcF-Qq2IJOZvG3uOfVuFMp2k6Np1v6YlC0teRkRpqoM",
									"type": "string"
								}
							]
						},
						"method": "PUT",
						"header": [],
						"body": {
							"mode": "raw",
							"raw": "{\r\n    \"userId\":\"63207622c9957a224f9901ed\",\r\n    \"isAdmin\": false\r\n}",
							"options": {
								"raw": {
									"language": "json"
								}
							}
						},
						"url": {
							"raw": "{{url}}/users/access",
							"host": [
								"{{url}}"
							],
							"path": [
								"users",
								"access"
							]
						}
					},
					"response": []
				},
				{
					"name": "user details",
					"request": {
						"auth": {
							"type": "bearer",
							"bearer": [
								{
									"key": "token",
									"value": "eyJhbGciOiJIUzI1NiIsInR5cCI6IkpXVCJ9.eyJpZCI6IjYzMjA3Y2FhODM1Yjg2YzJkYWNkZmEzMiIsImVtYWlsIjoiYWRtaW5AZW1haWwuY29tIiwiaXNBZG1pbiI6dHJ1ZSwiaWF0IjoxNjYzMTU4NDM0fQ.GcF-Qq2IJOZvG3uOfVuFMp2k6Np1v6YlC0teRkRpqoM",
									"type": "string"
								}
							]
						},
						"method": "GET",
						"header": [],
						"url": {
							"raw": "{{url}}/users/details",
							"host": [
								"{{url}}"
							],
							"path": [
								"users",
								"details"
							]
						}
					},
					"response": []
				},
				{
					"name": "user detail",
					"request": {
						"auth": {
							"type": "bearer",
							"bearer": [
								{
									"key": "token",
									"value": "eyJhbGciOiJIUzI1NiIsInR5cCI6IkpXVCJ9.eyJpZCI6IjYzMjA3Y2FhODM1Yjg2YzJkYWNkZmEzMiIsImVtYWlsIjoiYWRtaW5AZW1haWwuY29tIiwiaXNBZG1pbiI6dHJ1ZSwiaWF0IjoxNjYzMTU4NDM0fQ.GcF-Qq2IJOZvG3uOfVuFMp2k6Np1v6YlC0teRkRpqoM",
									"type": "string"
								}
							]
						},
						"method": "POST",
						"header": [],
						"body": {
							"mode": "raw",
							"raw": "{\r\n    \"userId\":\"63207622c9957a224f9901ed\"\r\n}",
							"options": {
								"raw": {
									"language": "json"
								}
							}
						},
						"url": {
							"raw": "{{url}}/users/details",
							"host": [
								"{{url}}"
							],
							"path": [
								"users",
								"details"
							]
						}
					},
					"response": []
				}
			]
		},
		{
			"name": "Product-Collection",
			"item": [
				{
					"name": "create product",
					"request": {
						"auth": {
							"type": "bearer",
							"bearer": [
								{
									"key": "token",
									"value": "eyJhbGciOiJIUzI1NiIsInR5cCI6IkpXVCJ9.eyJpZCI6IjYzMjA3Y2FhODM1Yjg2YzJkYWNkZmEzMiIsImVtYWlsIjoiYWRtaW5AZW1haWwuY29tIiwiaXNBZG1pbiI6dHJ1ZSwiaWF0IjoxNjYzMTU4NDM0fQ.GcF-Qq2IJOZvG3uOfVuFMp2k6Np1v6YlC0teRkRpqoM",
									"type": "string"
								}
							]
						},
						"method": "POST",
						"header": [],
						"body": {
							"mode": "formdata",
							"formdata": [
								{
									"key": "name",
									"value": "Nokia 3310",
									"contentType": "",
									"type": "text"
								},
								{
									"key": "description",
									"value": "Strongest lived 2g phone",
									"contentType": "",
									"type": "text"
								},
								{
									"key": "price",
									"value": "5000",
									"contentType": "",
									"type": "text"
								},
								{
									"key": "image",
									"type": "file",
									"src": "/C:/Users/4/Desktop/product_images/nokia3310.jfif"
								},
								{
									"key": "quantity",
									"value": "0",
									"type": "text"
								}
							]
						},
						"url": {
							"raw": "{{url}}/products/",
							"host": [
								"{{url}}"
							],
							"path": [
								"products",
								""
							]
						}
					},
					"response": []
				},
				{
					"name": "update product",
					"request": {
						"auth": {
							"type": "bearer",
							"bearer": [
								{
									"key": "token",
									"value": "eyJhbGciOiJIUzI1NiIsInR5cCI6IkpXVCJ9.eyJpZCI6IjYzMjA3Y2FhODM1Yjg2YzJkYWNkZmEzMiIsImVtYWlsIjoiYWRtaW5AZW1haWwuY29tIiwiaXNBZG1pbiI6dHJ1ZSwiaWF0IjoxNjYzMTU4NDM0fQ.GcF-Qq2IJOZvG3uOfVuFMp2k6Np1v6YlC0teRkRpqoM",
									"type": "string"
								}
							]
						},
						"method": "PUT",
						"header": [],
						"body": {
							"mode": "raw",
							"raw": "{\r\n    \"productId\":\"6323145ea91e3711819e376c\",\r\n    \"name\":\"Iphone 13 Pro Max\",\r\n    \"description\":\"Newest Iphone on the planet\",\r\n    \"price\":\"70000\",\r\n    \"quantity\": 5,\r\n    \"isActive\": true\r\n}",
							"options": {
								"raw": {
									"language": "json"
								}
							}
						},
						"url": {
							"raw": "{{url}}/products/update",
							"host": [
								"{{url}}"
							],
							"path": [
								"products",
								"update"
							]
						}
					},
					"response": []
				},
				{
					"name": "product delete",
					"request": {
						"auth": {
							"type": "bearer",
							"bearer": [
								{
									"key": "token",
									"value": "eyJhbGciOiJIUzI1NiIsInR5cCI6IkpXVCJ9.eyJpZCI6IjYzMjA3Y2FhODM1Yjg2YzJkYWNkZmEzMiIsImVtYWlsIjoiYWRtaW5AZW1haWwuY29tIiwiaXNBZG1pbiI6dHJ1ZSwiaWF0IjoxNjYzMTU4NDM0fQ.GcF-Qq2IJOZvG3uOfVuFMp2k6Np1v6YlC0teRkRpqoM",
									"type": "string"
								}
							]
						},
						"method": "PATCH",
						"header": [],
						"body": {
							"mode": "raw",
							"raw": "{\r\n    \"productId\":\"6323160e04c2c741c04977d4\"  \r\n}",
							"options": {
								"raw": {
									"language": "json"
								}
							}
						},
						"url": {
							"raw": "{{url}}/products/delete",
							"host": [
								"{{url}}"
							],
							"path": [
								"products",
								"delete"
							]
						}
					},
					"response": []
				},
				{
					"name": "all products",
					"request": {
						"auth": {
							"type": "bearer",
							"bearer": [
								{
									"key": "token",
									"value": "eyJhbGciOiJIUzI1NiIsInR5cCI6IkpXVCJ9.eyJpZCI6IjYzMjA3Y2FhODM1Yjg2YzJkYWNkZmEzMiIsImVtYWlsIjoiYWRtaW5AZW1haWwuY29tIiwiaWF0IjoxNjYzMTUwNzMwfQ.cWMSAl2SfFj7sP4MjDUyBjBp0Li87rAZDqRx7uYjvDM",
									"type": "string"
								}
							]
						},
						"method": "GET",
						"header": [],
						"url": {
							"raw": "{{url}}/products/",
							"host": [
								"{{url}}"
							],
							"path": [
								"products",
								""
							]
						}
					},
					"response": []
				},
				{
					"name": "product",
					"request": {
						"auth": {
							"type": "bearer",
							"bearer": [
								{
									"key": "token",
									"value": "eyJhbGciOiJIUzI1NiIsInR5cCI6IkpXVCJ9.eyJpZCI6IjYzMjA3Y2FhODM1Yjg2YzJkYWNkZmEzMiIsImVtYWlsIjoiYWRtaW5AZW1haWwuY29tIiwiaWF0IjoxNjYzMTUwNzMwfQ.cWMSAl2SfFj7sP4MjDUyBjBp0Li87rAZDqRx7uYjvDM",
									"type": "string"
								}
							]
						},
						"method": "GET",
						"header": [],
						"url": {
							"raw": "{{url}}/products/6322e2a73d3ca1431a96699f",
							"host": [
								"{{url}}"
							],
							"path": [
								"products",
								"6322e2a73d3ca1431a96699f"
							]
						}
					},
					"response": []
				}
			]
		},
		{
			"name": "Order-Collection",
			"item": [
				{
					"name": "new order",
					"request": {
						"auth": {
							"type": "bearer",
							"bearer": [
								{
									"key": "token",
									"value": "eyJhbGciOiJIUzI1NiIsInR5cCI6IkpXVCJ9.eyJpZCI6IjYzMjA3NjJmYzk5NTdhMjI0Zjk5MDFmMSIsImVtYWlsIjoiY2FybGVuZS5zb2xpbWFuQGdtYWlsLmNvbSIsImlzQWRtaW4iOmZhbHNlLCJpYXQiOjE2NjMyNTA1NTV9.nU1-Kig39ux-aKqsND9-OVqBLwQBd06Z1EQmg_TAX_Y",
									"type": "string"
								}
							]
						},
						"method": "POST",
						"header": [],
						"body": {
							"mode": "raw",
							"raw": "{\r\n    \"products\":[\r\n        {\r\n            \"productId\": \"6323145ea91e3711819e376c\",\r\n            \"price\": 70000,\r\n            \"quantity\": 2,\r\n            \"imgPath\": \"images\\\\products\\\\1663243358563-iphone13ProMax.jpg\"\r\n        }\r\n    ]\r\n}",
							"options": {
								"raw": {
									"language": "json"
								}
							}
						},
						"url": {
							"raw": "{{url}}/orders/",
							"host": [
								"{{url}}"
							],
							"path": [
								"orders",
								""
							]
						}
					},
					"response": []
				},
				{
					"name": "order cancelled",
					"request": {
						"auth": {
							"type": "bearer",
							"bearer": [
								{
									"key": "token",
									"value": "eyJhbGciOiJIUzI1NiIsInR5cCI6IkpXVCJ9.eyJpZCI6IjYzMjA3NjJmYzk5NTdhMjI0Zjk5MDFmMSIsImVtYWlsIjoiY2FybGVuZS5zb2xpbWFuQGdtYWlsLmNvbSIsImlzQWRtaW4iOmZhbHNlLCJpYXQiOjE2NjMyNTA1NTV9.nU1-Kig39ux-aKqsND9-OVqBLwQBd06Z1EQmg_TAX_Y",
									"type": "string"
								}
							]
						},
						"method": "POST",
						"header": [],
						"body": {
							"mode": "raw",
							"raw": "{\r\n   \"orderId\":\"632337dd092fc834efd6e449\"\r\n}",
							"options": {
								"raw": {
									"language": "json"
								}
							}
						},
						"url": {
							"raw": "{{url}}/orders/cancelled",
							"host": [
								"{{url}}"
							],
							"path": [
								"orders",
								"cancelled"
							]
						}
					},
					"response": []
				},
				{
					"name": "all orders",
					"request": {
						"auth": {
							"type": "bearer",
							"bearer": [
								{
									"key": "token",
									"value": "eyJhbGciOiJIUzI1NiIsInR5cCI6IkpXVCJ9.eyJpZCI6IjYzMjA3Y2FhODM1Yjg2YzJkYWNkZmEzMiIsImVtYWlsIjoiYWRtaW5AZW1haWwuY29tIiwiaXNBZG1pbiI6dHJ1ZSwiaWF0IjoxNjYzMTU4NDM0fQ.GcF-Qq2IJOZvG3uOfVuFMp2k6Np1v6YlC0teRkRpqoM",
									"type": "string"
								}
							]
						},
						"method": "GET",
						"header": [],
						"url": {
							"raw": "{{url}}/orders/",
							"host": [
								"{{url}}"
							],
							"path": [
								"orders",
								""
							]
						}
					},
					"response": []
				},
				{
					"name": "order",
					"protocolProfileBehavior": {
						"disableBodyPruning": true
					},
					"request": {
						"auth": {
							"type": "bearer",
							"bearer": [
								{
									"key": "token",
									"value": "eyJhbGciOiJIUzI1NiIsInR5cCI6IkpXVCJ9.eyJpZCI6IjYzMjA3NjJmYzk5NTdhMjI0Zjk5MDFmMSIsImVtYWlsIjoiY2FybGVuZS5zb2xpbWFuQGdtYWlsLmNvbSIsImlzQWRtaW4iOmZhbHNlLCJpYXQiOjE2NjMyNTA1NTV9.nU1-Kig39ux-aKqsND9-OVqBLwQBd06Z1EQmg_TAX_Y",
									"type": "string"
								}
							]
						},
						"method": "GET",
						"header": [],
						"body": {
							"mode": "raw",
							"raw": "{\r\n    \"userId\": \"63207622c9957a224f9901ed\",\r\n    \"products\":[\r\n        {\r\n            \"productId\": \"6323145ea91e3711819e376c\",\r\n            \"price\": 70000,\r\n            \"quantity\": 2,\r\n            \"imgPath\": \"images\\\\products\\\\1663243358563-iphone13ProMax.jpg\"\r\n        },\r\n        {\r\n            \"productId\":\"632314ef04c2c741c04977c9\",\r\n            \"price\":65000,\r\n            \"quantity\": 3,\r\n            \"imgPath\": \"images\\\\products\\\\1663243503075-samsungS22Ultra.png\"\r\n        }\r\n    ]\r\n}",
							"options": {
								"raw": {
									"language": "json"
								}
							}
						},
						"url": {
							"raw": "{{url}}/orders/632337dd092fc834efd6e449",
							"host": [
								"{{url}}"
							],
							"path": [
								"orders",
								"632337dd092fc834efd6e449"
							]
						}
					},
					"response": []
				}
			]
		},
		{
			"name": "Cart-Collection",
			"item": [
				{
					"name": "product to cart",
					"request": {
						"auth": {
							"type": "noauth"
						},
						"method": "POST",
						"header": [],
						"body": {
							"mode": "raw",
							"raw": "{\r\n    \"userId\":\"63207caa835b86c2dacdfa32\",\r\n    \"products\":[\r\n        {\r\n            \"productId\":\"6323145ea91e3711819e376c\",\r\n            \"price\": 70000,\r\n            \"quantity\": 2,\r\n            \"imgPath\": \"images\\\\products\\\\1663243358563-iphone13ProMax.jpg\"\r\n        }\r\n    ]\r\n    \r\n}",
							"options": {
								"raw": {
									"language": "json"
								}
							}
						},
						"url": {
							"raw": "{{url}}/cart",
							"host": [
								"{{url}}"
							],
							"path": [
								"cart"
							]
						}
					},
					"response": []
				}
			]
		}
	]
}